-------------------------------------------------------------------------------
Test set: com.epam.JenkinsTest
-------------------------------------------------------------------------------
Tests run: 1, Failures: 0, Errors: 0, Skipped: 0, Time elapsed: 0.395 s - in com.epam.JenkinsTest
